------------------------------------------------------------------------
r838936 | scripty | 2008-07-29 06:44:52 +0200 (Tue, 29 Jul 2008) | 1 line

SVN_SILENT made messages (.desktop file)
------------------------------------------------------------------------
r846765 | scripty | 2008-08-14 07:13:33 +0200 (Thu, 14 Aug 2008) | 1 line

SVN_SILENT made messages (.desktop file)
------------------------------------------------------------------------
r848445 | ossi | 2008-08-17 20:54:55 +0200 (Sun, 17 Aug 2008) | 2 lines

backport r847485 & 848443: assorted screensaver fixes

------------------------------------------------------------------------
